INDEX VERSION 1.131+D:\IBMAppiumTraining\AutomationFramework\.metadata\.plugins\org.eclipse.jdt.core
3325592357.index
3881871041.index
1301491334.index
1782255533.index
1248085571.index
3271461303.index
1702461519.index
4177176542.index
3033509781.index
3839659342.index
2550576460.index
3207797568.index
122687054.index
3868844456.index
855345048.index
46153933.index
2586262500.index
658073889.index
1911227525.index
2597298402.index
3572921438.index
1934030580.index
1977940631.index
1355148301.index
984303303.index
2991564950.index
31593890.index
197358789.index
3059381069.index
1456318218.index
1790346848.index
955076836.index
1245257881.index
2691104455.index
222686996.index
2370045119.index
2339012761.index
2041822733.index
312102207.index
3848565465.index
2686559424.index
187694516.index
3424348205.index
2167570844.index
